%YAML 1.1
%TAG !u! tag:unity3d.com,2011:
--- !u!1 &6981634509531896067
GameObject:
  m_ObjectHideFlags: 0
  m_CorrespondingSourceObject: {fileID: 0}
  m_PrefabInstance: {fileID: 0}
  m_PrefabAsset: {fileID: 0}
  serializedVersion: 6
  m_Component:
  - component: {fileID: 6981634509531896093}
  - component: {fileID: 6981634509531896092}
  m_Layer: 0
  m_Name: AudioManager
  m_TagString: Untagged
  m_Icon: {fileID: 0}
  m_NavMeshLayer: 0
  m_StaticEditorFlags: 0
  m_IsActive: 1
--- !u!4 &6981634509531896093
Transform:
  m_ObjectHideFlags: 0
  m_CorrespondingSourceObject: {fileID: 0}
  m_PrefabInstance: {fileID: 0}
  m_PrefabAsset: {fileID: 0}
  m_GameObject: {fileID: 6981634509531896067}
  m_LocalRotation: {x: 0, y: 0, z: 0, w: 1}
  m_LocalPosition: {x: 161.58759, y: 0.73382163, z: 121.54661}
  m_LocalScale: {x: 1, y: 1, z: 1}
  m_Children: []
  m_Father: {fileID: 0}
  m_RootOrder: 0
  m_LocalEulerAnglesHint: {x: 0, y: 0, z: 0}
--- !u!114 &6981634509531896092
MonoBehaviour:
  m_ObjectHideFlags: 0
  m_CorrespondingSourceObject: {fileID: 0}
  m_PrefabInstance: {fileID: 0}
  m_PrefabAsset: {fileID: 0}
  m_GameObject: {fileID: 6981634509531896067}
  m_Enabled: 1
  m_EditorHideFlags: 0
  m_Script: {fileID: 11500000, guid: df7514265ff9f324096f66a2defb3a14, type: 3}
  m_Name: 
  m_EditorClassIdentifier: 
  tracks:
  - name: jump_1
    clip: {fileID: 8300000, guid: 6268f96f7c8a5a047ba2ce2054570530, type: 3}
    volume: 0.5
    pitch: 1
    loop: 0
    source: {fileID: 0}
    playing: 0
  - name: acceleration
    clip: {fileID: 8300000, guid: 7e6f0589444a0ba41b402a3017512491, type: 3}
    volume: 0.15
    pitch: 1
    loop: 0
    source: {fileID: 0}
    playing: 0
  - name: deceleration
    clip: {fileID: 8300000, guid: df8c5a739cdb83f459eb56f58194663f, type: 3}
    volume: 0.15
    pitch: 1
    loop: 0
    source: {fileID: 0}
    playing: 0
  - name: speed_ambiant_sound
    clip: {fileID: 8300000, guid: 6906177fd97c5b94fbf2c80bde38cb80, type: 3}
    volume: 0.25
    pitch: 1
    loop: 1
    source: {fileID: 0}
    playing: 0
  - name: song_2
    clip: {fileID: 8300000, guid: 151d67c2040131442ab46cc170acd6dd, type: 3}
    volume: 0.5
    pitch: 1
    loop: 1
    source: {fileID: 0}
    playing: 0
  - name: coin
    clip: {fileID: 8300000, guid: 7457110b4b31da348bed85e57ecfe1bb, type: 3}
    volume: 0.8
    pitch: 1
    loop: 0
    source: {fileID: 0}
    playing: 0
  - name: hurt
    clip: {fileID: 8300000, guid: 4492338826cd68f43a7888e54b117c5c, type: 3}
    volume: 0.8
    pitch: 1
    loop: 0
    source: {fileID: 0}
    playing: 0
  - name: song_2_main_menu
    clip: {fileID: 8300000, guid: 71c1a140cad528941ab6f84bba0a356c, type: 3}
    volume: 0.8
    pitch: 1
    loop: 1
    source: {fileID: 0}
    playing: 0
