%YAML 1.1
%TAG !u! tag:unity3d.com,2011:
--- !u!114 &11400000
MonoBehaviour:
  m_ObjectHideFlags: 0
  m_CorrespondingSourceObject: {fileID: 0}
  m_PrefabInstance: {fileID: 0}
  m_PrefabAsset: {fileID: 0}
  m_GameObject: {fileID: 0}
  m_Enabled: 1
  m_EditorHideFlags: 0
  m_Script: {fileID: 11500000, guid: 5c5bdf871e40f8a4c8834a6afd74fd4a, type: 3}
  m_Name: Level_1
  m_EditorClassIdentifier: 
  distance: 1
  pipes:
  - Pipe: 1
    Chance: 3
    CanRepeat: 0
  - Pipe: 2
    Chance: 1
    CanRepeat: 0
  - Pipe: 4
    Chance: 2
    CanRepeat: 1
  - Pipe: 6
    Chance: 1
    CanRepeat: 1
